0.000000000000000000e+00,-0.000000000000000000e+00,-2.724185585975646973e-01,-0.000000000000000000e+00,0.000000000000000000e+00,-0.000000000000000000e+00,2.789041996002197266e+00,-0.000000000000000000e+00,-0.000000000000000000e+00,-2.431024610996246338e-01,-2.192116677761077881e-01,0.000000000000000000e+00,1.905088067054748535e+00,-0.000000000000000000e+00,-0.000000000000000000e+00,0.000000000000000000e+00,0.000000000000000000e+00,2.484511852264404297e+00,0.000000000000000000e+00,-0.000000000000000000e+00,9.520617723464965820e-01,0.000000000000000000e+00,-0.000000000000000000e+00,2.231156975030899048e-01,-0.000000000000000000e+00,0.000000000000000000e+00,0.000000000000000000e+00,-0.000000000000000000e+00,1.279267787933349609e+00,-0.000000000000000000e+00,0.000000000000000000e+00,-1.710123419761657715e-01,-0.000000000000000000e+00,-1.697486639022827148e-01,0.000000000000000000e+00,0.000000000000000000e+00,0.000000000000000000e+00,-0.000000000000000000e+00,-0.000000000000000000e+00,-0.000000000000000000e+00,5.816924571990966797e-01,0.000000000000000000e+00,0.000000000000000000e+00,0.000000000000000000e+00,3.135496139526367188e+00,-0.000000000000000000e+00,-0.000000000000000000e+00,-2.438648790121078491e-01,-8.810084462165832520e-01,-0.000000000000000000e+00
-2.408336102962493896e-01,-0.000000000000000000e+00,-0.000000000000000000e+00,-2.099782675504684448e-01,1.551840007305145264e-01,0.000000000000000000e+00,-0.000000000000000000e+00,0.000000000000000000e+00,2.173032760620117188e-01,0.000000000000000000e+00,-2.317565530538558960e-01,1.753470003604888916e-01,-0.000000000000000000e+00,0.000000000000000000e+00,1.865672767162322998e-01,0.000000000000000000e+00,2.233904749155044556e-01,1.958523392677307129e-01,-0.000000000000000000e+00,-0.000000000000000000e+00,0.000000000000000000e+00,0.000000000000000000e+00,0.000000000000000000e+00,0.000000000000000000e+00,0.000000000000000000e+00,-0.000000000000000000e+00,-0.000000000000000000e+00,-2.984953820705413818e-01,-2.514615356922149658e-01,1.848591566085815430e-01,0.000000000000000000e+00,-2.625077962875366211e-01,-0.000000000000000000e+00,0.000000000000000000e+00,3.120211362838745117e-01,-0.000000000000000000e+00,-0.000000000000000000e+00,-0.000000000000000000e+00,-0.000000000000000000e+00,0.000000000000000000e+00,-0.000000000000000000e+00,-2.202588170766830444e-01,1.688104867935180664e-01,0.000000000000000000e+00,-0.000000000000000000e+00,0.000000000000000000e+00,-0.000000000000000000e+00,0.000000000000000000e+00,0.000000000000000000e+00,-2.068692296743392944e-01
-0.000000000000000000e+00,0.000000000000000000e+00,-0.000000000000000000e+00,-0.000000000000000000e+00,-2.470449954271316528e-01,2.689435184001922607e-01,-0.000000000000000000e+00,-0.000000000000000000e+00,-0.000000000000000000e+00,-0.000000000000000000e+00,-2.062011659145355225e-01,0.000000000000000000e+00,-0.000000000000000000e+00,0.000000000000000000e+00,-0.000000000000000000e+00,0.000000000000000000e+00,0.000000000000000000e+00,-0.000000000000000000e+00,-0.000000000000000000e+00,-0.000000000000000000e+00,-0.000000000000000000e+00,0.000000000000000000e+00,0.000000000000000000e+00,2.438413351774215698e-01,0.000000000000000000e+00,-0.000000000000000000e+00,-0.000000000000000000e+00,-0.000000000000000000e+00,-0.000000000000000000e+00,0.000000000000000000e+00,-0.000000000000000000e+00,1.696581989526748657e-01,0.000000000000000000e+00,0.000000000000000000e+00,-0.000000000000000000e+00,0.000000000000000000e+00,0.000000000000000000e+00,0.000000000000000000e+00,0.000000000000000000e+00,-0.000000000000000000e+00,0.000000000000000000e+00,-1.892230659723281860e-01,0.000000000000000000e+00,0.000000000000000000e+00,-0.000000000000000000e+00,0.000000000000000000e+00,0.000000000000000000e+00,0.000000000000000000e+00,-0.000000000000000000e+00,-0.000000000000000000e+00
2.042732983827590942e-01,-0.000000000000000000e+00,0.000000000000000000e+00,-2.070157527923583984e-01,2.126132994890213013e-01,0.000000000000000000e+00,-0.000000000000000000e+00,2.258683443069458008e-01,-1.758083999156951904e-01,-0.000000000000000000e+00,1.999737173318862915e-01,2.029212117195129395e-01,-0.000000000000000000e+00,0.000000000000000000e+00,2.097695916891098022e-01,2.132084369659423828e-01,0.000000000000000000e+00,1.844083070755004883e-01,-0.000000000000000000e+00,-1.876971423625946045e-01,2.646960318088531494e-01,-2.616410851478576660e-01,-2.298690676689147949e-01,-0.000000000000000000e+00,-0.000000000000000000e+00,0.000000000000000000e+00,-0.000000000000000000e+00,1.520770341157913208e-01,2.415477782487869263e-01,2.564575970172882080e-01,-0.000000000000000000e+00,-0.000000000000000000e+00,-0.000000000000000000e+00,2.171759158372879028e-01,-1.898664236068725586e-01,-1.633546352386474609e-01,0.000000000000000000e+00,1.956073492765426636e-01,0.000000000000000000e+00,-0.000000000000000000e+00,-1.533873230218887329e-01,-0.000000000000000000e+00,-0.000000000000000000e+00,1.841160804033279419e-01,-0.000000000000000000e+00,-0.000000000000000000e+00,0.000000000000000000e+00,0.000000000000000000e+00,0.000000000000000000e+00,-0.000000000000000000e+00
0.000000000000000000e+00,5.715471506118774414e-01,1.737515777349472046e-01,-0.000000000000000000e+00,-2.557927668094635010e-01,4.293141067028045654e-01,-0.000000000000000000e+00,0.000000000000000000e+00,-0.000000000000000000e+00,-2.535688877105712891e-01,-0.000000000000000000e+00,0.000000000000000000e+00,5.610123872756958008e-01,-0.000000000000000000e+00,-0.000000000000000000e+00,-0.000000000000000000e+00,0.000000000000000000e+00,-0.000000000000000000e+00,-0.000000000000000000e+00,-0.000000000000000000e+00,0.000000000000000000e+00,2.631906569004058838e-01,-4.849366843700408936e-01,-2.404766082763671875e-01,0.000000000000000000e+00,-0.000000000000000000e+00,2.854669392108917236e-01,-4.404329657554626465e-01,-0.000000000000000000e+00,-0.000000000000000000e+00,-0.000000000000000000e+00,0.000000000000000000e+00,4.639560878276824951e-01,-0.000000000000000000e+00,-0.000000000000000000e+00,-0.000000000000000000e+00,-0.000000000000000000e+00,6.112310886383056641e-01,0.000000000000000000e+00,-0.000000000000000000e+00,-0.000000000000000000e+00,0.000000000000000000e+00,-1.867448389530181885e-01,-1.701307892799377441e-01,0.000000000000000000e+00,0.000000000000000000e+00,-4.550904929637908936e-01,-0.000000000000000000e+00,-0.000000000000000000e+00,0.000000000000000000e+00
-1.965640187263488770e-01,1.738867312669754028e-01,-2.054848521947860718e-01,-0.000000000000000000e+00,1.983212381601333618e-01,-2.340435683727264404e-01,2.385209649801254272e-01,-0.000000000000000000e+00,1.759489625692367554e-01,-2.406455576419830322e-01,-0.000000000000000000e+00,-1.717731058597564697e-01,-0.000000000000000000e+00,-2.009428143501281738e-01,0.000000000000000000e+00,0.000000000000000000e+00,-0.000000000000000000e+00,-0.000000000000000000e+00,0.000000000000000000e+00,0.000000000000000000e+00,0.000000000000000000e+00,-0.000000000000000000e+00,-2.017391026020050049e-01,0.000000000000000000e+00,1.923742443323135376e-01,-0.000000000000000000e+00,0.000000000000000000e+00,-1.933164298534393311e-01,-0.000000000000000000e+00,-0.000000000000000000e+00,-0.000000000000000000e+00,-2.422701418399810791e-01,-2.200960367918014526e-01,1.855804771184921265e-01,0.000000000000000000e+00,0.000000000000000000e+00,-0.000000000000000000e+00,0.000000000000000000e+00,0.000000000000000000e+00,1.528647691011428833e-01,2.359644919633865356e-01,0.000000000000000000e+00,2.031646519899368286e-01,-0.000000000000000000e+00,-0.000000000000000000e+00,-0.000000000000000000e+00,-0.000000000000000000e+00,-0.000000000000000000e+00,-2.262696027755737305e-01,2.345968037843704224e-01
-2.187647581100463867e+00,-0.000000000000000000e+00,-1.747397035360336304e-01,-0.000000000000000000e+00,-0.000000000000000000e+00,-0.000000000000000000e+00,2.287451505661010742e+00,2.805916309356689453e+00,2.560329437255859375e+00,0.000000000000000000e+00,1.556667536497116089e-01,-0.000000000000000000e+00,-0.000000000000000000e+00,-0.000000000000000000e+00,0.000000000000000000e+00,2.834848165512084961e+00,-0.000000000000000000e+00,0.000000000000000000e+00,-0.000000000000000000e+00,2.796469926834106445e+00,2.991485118865966797e+00,-0.000000000000000000e+00,-3.197049140930175781e+00,-0.000000000000000000e+00,0.000000000000000000e+00,-0.000000000000000000e+00,-0.000000000000000000e+00,-0.000000000000000000e+00,0.000000000000000000e+00,-0.000000000000000000e+00,-1.682880669832229614e-01,0.000000000000000000e+00,-0.000000000000000000e+00,-1.804976016283035278e-01,2.445664167404174805e+00,0.000000000000000000e+00,-0.000000000000000000e+00,-0.000000000000000000e+00,0.000000000000000000e+00,0.000000000000000000e+00,0.000000000000000000e+00,0.000000000000000000e+00,-0.000000000000000000e+00,-0.000000000000000000e+00,-0.000000000000000000e+00,0.000000000000000000e+00,0.000000000000000000e+00,-2.671967446804046631e-01,-2.850374698638916016e+00,3.117905139923095703e+00
-0.000000000000000000e+00,2.453067749738693237e-01,-0.000000000000000000e+00,0.000000000000000000e+00,-0.000000000000000000e+00,-0.000000000000000000e+00,0.000000000000000000e+00,-0.000000000000000000e+00,-0.000000000000000000e+00,-0.000000000000000000e+00,-2.007159888744354248e-01,0.000000000000000000e+00,0.000000000000000000e+00,0.000000000000000000e+00,0.000000000000000000e+00,-2.231846153736114502e-01,0.000000000000000000e+00,2.419378608465194702e-01,-0.000000000000000000e+00,-0.000000000000000000e+00,-0.000000000000000000e+00,2.157217860221862793e-01,-0.000000000000000000e+00,-0.000000000000000000e+00,-0.000000000000000000e+00,0.000000000000000000e+00,-0.000000000000000000e+00,0.000000000000000000e+00,-0.000000000000000000e+00,0.000000000000000000e+00,-0.000000000000000000e+00,0.000000000000000000e+00,-0.000000000000000000e+00,2.280444055795669556e-01,-0.000000000000000000e+00,-0.000000000000000000e+00,-2.792836427688598633e-01,0.000000000000000000e+00,2.444008141756057739e-01,-0.000000000000000000e+00,0.000000000000000000e+00,0.000000000000000000e+00,-2.141358703374862671e-01,0.000000000000000000e+00,-1.814333051443099976e-01,-2.023362964391708374e-01,-0.000000000000000000e+00,-2.278569638729095459e-01,0.000000000000000000e+00,0.000000000000000000e+00
-1.560248136520385742e-01,0.000000000000000000e+00,-2.766791582107543945e-01,1.673211753368377686e-01,-0.000000000000000000e+00,0.000000000000000000e+00,-0.000000000000000000e+00,0.000000000000000000e+00,-0.000000000000000000e+00,-0.000000000000000000e+00,2.393651455640792847e-01,-0.000000000000000000e+00,-1.694033443927764893e-01,0.000000000000000000e+00,-0.000000000000000000e+00,-1.530907750129699707e-01,1.533579379320144653e-01,0.000000000000000000e+00,0.000000000000000000e+00,0.000000000000000000e+00,-0.000000000000000000e+00,2.187780588865280151e-01,-2.027860134840011597e-01,0.000000000000000000e+00,-0.000000000000000000e+00,1.860946118831634521e-01,0.000000000000000000e+00,0.000000000000000000e+00,-0.000000000000000000e+00,0.000000000000000000e+00,-0.000000000000000000e+00,1.999183595180511475e-01,1.515970379114151001e-01,1.938001066446304321e-01,0.000000000000000000e+00,-2.731751799583435059e-01,-0.000000000000000000e+00,-0.000000000000000000e+00,0.000000000000000000e+00,-1.668129563331604004e-01,-0.000000000000000000e+00,-0.000000000000000000e+00,-0.000000000000000000e+00,0.000000000000000000e+00,0.000000000000000000e+00,-0.000000000000000000e+00,0.000000000000000000e+00,-2.552359700202941895e-01,-2.020017653703689575e-01,-1.493561267852783203e-01
-0.000000000000000000e+00,-7.998838424682617188e-01,-0.000000000000000000e+00,-0.000000000000000000e+00,0.000000000000000000e+00,0.000000000000000000e+00,-0.000000000000000000e+00,0.000000000000000000e+00,0.000000000000000000e+00,1.892177313566207886e-01,0.000000000000000000e+00,-2.383955121040344238e-01,-6.314288377761840820e-01,1.401802301406860352e-01,0.000000000000000000e+00,-0.000000000000000000e+00,0.000000000000000000e+00,-0.000000000000000000e+00,0.000000000000000000e+00,0.000000000000000000e+00,0.000000000000000000e+00,-0.000000000000000000e+00,0.000000000000000000e+00,1.718577891588211060e-01,-0.000000000000000000e+00,2.699308693408966064e-01,-0.000000000000000000e+00,-0.000000000000000000e+00,-0.000000000000000000e+00,-0.000000000000000000e+00,-0.000000000000000000e+00,0.000000000000000000e+00,0.000000000000000000e+00,-0.000000000000000000e+00,-8.223471045494079590e-01,-0.000000000000000000e+00,0.000000000000000000e+00,0.000000000000000000e+00,0.000000000000000000e+00,0.000000000000000000e+00,-0.000000000000000000e+00,0.000000000000000000e+00,0.000000000000000000e+00,1.775987893342971802e-01,-0.000000000000000000e+00,0.000000000000000000e+00,6.373443007469177246e-01,-0.000000000000000000e+00,-0.000000000000000000e+00,-0.000000000000000000e+00
-0.000000000000000000e+00,-0.000000000000000000e+00,-1.934102177619934082e-01,-0.000000000000000000e+00,-0.000000000000000000e+00,-0.000000000000000000e+00,-1.891958564519882202e-01,0.000000000000000000e+00,-0.000000000000000000e+00,-0.000000000000000000e+00,0.000000000000000000e+00,0.000000000000000000e+00,-0.000000000000000000e+00,-0.000000000000000000e+00,-0.000000000000000000e+00,-0.000000000000000000e+00,1.772406399250030518e-01,-0.000000000000000000e+00,0.000000000000000000e+00,-0.000000000000000000e+00,2.083210796117782593e-01,-1.496519744396209717e-01,-1.635080426931381226e-01,-1.785971522331237793e-01,-1.727271974086761475e-01,-0.000000000000000000e+00,-0.000000000000000000e+00,-0.000000000000000000e+00,-0.000000000000000000e+00,-2.333282083272933960e-01,-1.705087721347808838e-01,-0.000000000000000000e+00,0.000000000000000000e+00,0.000000000000000000e+00,-0.000000000000000000e+00,-0.000000000000000000e+00,-2.736128270626068115e-01,2.301414310932159424e-01,-1.562998294830322266e-01,-0.000000000000000000e+00,-0.000000000000000000e+00,0.000000000000000000e+00,-0.000000000000000000e+00,0.000000000000000000e+00,1.569641232490539551e-01,-1.493927240371704102e-01,0.000000000000000000e+00,0.000000000000000000e+00,-0.000000000000000000e+00,0.000000000000000000e+00
-0.000000000000000000e+00,-0.000000000000000000e+00,1.729607135057449341e-01,0.000000000000000000e+00,0.000000000000000000e+00,0.000000000000000000e+00,0.000000000000000000e+00,0.000000000000000000e+00,-0.000000000000000000e+00,-2.237088084220886230e-01,-0.000000000000000000e+00,-0.000000000000000000e+00,0.000000000000000000e+00,-0.000000000000000000e+00,0.000000000000000000e+00,-0.000000000000000000e+00,0.000000000000000000e+00,0.000000000000000000e+00,0.000000000000000000e+00,-0.000000000000000000e+00,-5.935234427452087402e-01,-0.000000000000000000e+00,0.000000000000000000e+00,-2.300944179296493530e-01,5.585364699363708496e-01,0.000000000000000000e+00,0.000000000000000000e+00,-0.000000000000000000e+00,0.000000000000000000e+00,-5.048704743385314941e-01,-2.320815771818161011e-01,-0.000000000000000000e+00,-3.008008897304534912e-01,0.000000000000000000e+00,0.000000000000000000e+00,0.000000000000000000e+00,0.000000000000000000e+00,-0.000000000000000000e+00,7.253040671348571777e-01,0.000000000000000000e+00,-0.000000000000000000e+00,0.000000000000000000e+00,6.397314667701721191e-01,-2.637735009193420410e-01,-5.756826996803283691e-01,-0.000000000000000000e+00,-0.000000000000000000e+00,-2.099016606807708740e-01,0.000000000000000000e+00,-0.000000000000000000e+00
-0.000000000000000000e+00,-0.000000000000000000e+00,0.000000000000000000e+00,-0.000000000000000000e+00,0.000000000000000000e+00,0.000000000000000000e+00,-0.000000000000000000e+00,0.000000000000000000e+00,-0.000000000000000000e+00,0.000000000000000000e+00,-0.000000000000000000e+00,-0.000000000000000000e+00,1.488994956016540527e-01,-8.182146400213241577e-02,-0.000000000000000000e+00,-0.000000000000000000e+00,-0.000000000000000000e+00,-0.000000000000000000e+00,2.948186695575714111e-01,0.000000000000000000e+00,-0.000000000000000000e+00,-0.000000000000000000e+00,5.327913165092468262e-01,-0.000000000000000000e+00,0.000000000000000000e+00,0.000000000000000000e+00,-0.000000000000000000e+00,0.000000000000000000e+00,-0.000000000000000000e+00,0.000000000000000000e+00,-0.000000000000000000e+00,-1.657879054546356201e-01,0.000000000000000000e+00,-1.700472533702850342e-01,0.000000000000000000e+00,-1.847152113914489746e-01,-3.492761850357055664e-01,-0.000000000000000000e+00,-0.000000000000000000e+00,1.248194724321365356e-01,0.000000000000000000e+00,-0.000000000000000000e+00,2.122048288583755493e-01,-2.365737110376358032e-01,0.000000000000000000e+00,1.466921269893646240e-01,-0.000000000000000000e+00,0.000000000000000000e+00,0.000000000000000000e+00,0.000000000000000000e+00
-2.154522091150283813e-01,-1.618684530258178711e-01,0.000000000000000000e+00,1.690248996019363403e-01,1.846485137939453125e-01,1.832105368375778198e-01,1.826234161853790283e-01,1.590034216642379761e-01,-0.000000000000000000e+00,-1.522383540868759155e-01,0.000000000000000000e+00,0.000000000000000000e+00,0.000000000000000000e+00,-0.000000000000000000e+00,-1.978799104690551758e-01,-2.729164958000183105e-01,1.671455055475234985e-01,0.000000000000000000e+00,1.997620314359664917e-01,0.000000000000000000e+00,-0.000000000000000000e+00,0.000000000000000000e+00,-0.000000000000000000e+00,-0.000000000000000000e+00,-0.000000000000000000e+00,-0.000000000000000000e+00,0.000000000000000000e+00,0.000000000000000000e+00,1.845309287309646606e-01,2.309684455394744873e-01,-0.000000000000000000e+00,0.000000000000000000e+00,0.000000000000000000e+00,-0.000000000000000000e+00,-2.204254865646362305e-01,0.000000000000000000e+00,-0.000000000000000000e+00,-1.897135525941848755e-01,-1.645142287015914917e-01,-0.000000000000000000e+00,-0.000000000000000000e+00,0.000000000000000000e+00,0.000000000000000000e+00,-2.625514566898345947e-01,-1.712531298398971558e-01,-0.000000000000000000e+00,0.000000000000000000e+00,-2.051063328981399536e-01,0.000000000000000000e+00,-0.000000000000000000e+00
0.000000000000000000e+00,8.975867629051208496e-01,-0.000000000000000000e+00,0.000000000000000000e+00,-1.523783206939697266e-01,-0.000000000000000000e+00,-0.000000000000000000e+00,1.080423474311828613e+00,-0.000000000000000000e+00,-0.000000000000000000e+00,-0.000000000000000000e+00,-0.000000000000000000e+00,-0.000000000000000000e+00,0.000000000000000000e+00,-0.000000000000000000e+00,0.000000000000000000e+00,-1.372363865375518799e-01,2.831148505210876465e-01,-2.277027629315853119e-02,-0.000000000000000000e+00,-0.000000000000000000e+00,0.000000000000000000e+00,-1.506148219108581543e+00,-0.000000000000000000e+00,-0.000000000000000000e+00,-6.125634312629699707e-01,0.000000000000000000e+00,0.000000000000000000e+00,0.000000000000000000e+00,-0.000000000000000000e+00,-2.403450757265090942e-01,-2.029691487550735474e-01,-0.000000000000000000e+00,-1.944032609462738037e-01,1.131217479705810547e+00,-0.000000000000000000e+00,-0.000000000000000000e+00,0.000000000000000000e+00,2.508143782615661621e-01,0.000000000000000000e+00,0.000000000000000000e+00,-0.000000000000000000e+00,0.000000000000000000e+00,1.635389924049377441e-01,-0.000000000000000000e+00,-0.000000000000000000e+00,-0.000000000000000000e+00,0.000000000000000000e+00,0.000000000000000000e+00,1.315778374671936035e+00
-0.000000000000000000e+00,0.000000000000000000e+00,-2.628492414951324463e-01,0.000000000000000000e+00,-0.000000000000000000e+00,0.000000000000000000e+00,0.000000000000000000e+00,-0.000000000000000000e+00,-0.000000000000000000e+00,-2.177834063768386841e-01,-1.581901758909225464e-01,0.000000000000000000e+00,-0.000000000000000000e+00,-0.000000000000000000e+00,-5.040384531021118164e-01,-0.000000000000000000e+00,-0.000000000000000000e+00,-5.976354479789733887e-01,0.000000000000000000e+00,0.000000000000000000e+00,-0.000000000000000000e+00,5.913812518119812012e-01,8.905218839645385742e-01,-0.000000000000000000e+00,6.223050355911254883e-01,-0.000000000000000000e+00,5.122051239013671875e-01,6.246455311775207520e-01,-0.000000000000000000e+00,0.000000000000000000e+00,0.000000000000000000e+00,-1.978252232074737549e-01,0.000000000000000000e+00,0.000000000000000000e+00,0.000000000000000000e+00,-2.404907643795013428e-01,2.627174556255340576e-01,-0.000000000000000000e+00,0.000000000000000000e+00,5.571991801261901855e-01,-0.000000000000000000e+00,0.000000000000000000e+00,5.316838026046752930e-01,-0.000000000000000000e+00,-0.000000000000000000e+00,-5.983454585075378418e-01,6.307752728462219238e-01,0.000000000000000000e+00,8.759057521820068359e-01,-7.227163314819335938e-01
4.902851879596710205e-01,-0.000000000000000000e+00,-0.000000000000000000e+00,-0.000000000000000000e+00,0.000000000000000000e+00,0.000000000000000000e+00,0.000000000000000000e+00,-0.000000000000000000e+00,0.000000000000000000e+00,-0.000000000000000000e+00,-0.000000000000000000e+00,-0.000000000000000000e+00,-0.000000000000000000e+00,0.000000000000000000e+00,-0.000000000000000000e+00,-0.000000000000000000e+00,-0.000000000000000000e+00,0.000000000000000000e+00,-0.000000000000000000e+00,-0.000000000000000000e+00,0.000000000000000000e+00,-0.000000000000000000e+00,0.000000000000000000e+00,0.000000000000000000e+00,0.000000000000000000e+00,-0.000000000000000000e+00,-0.000000000000000000e+00,6.146229505538940430e-01,-0.000000000000000000e+00,2.186458855867385864e-01,-2.529484033584594727e-01,-1.874497681856155396e-01,0.000000000000000000e+00,0.000000000000000000e+00,4.780761152505874634e-02,-2.552152574062347412e-01,-0.000000000000000000e+00,-4.368345439434051514e-01,0.000000000000000000e+00,-0.000000000000000000e+00,0.000000000000000000e+00,0.000000000000000000e+00,5.444344878196716309e-01,-2.906365096569061279e-01,0.000000000000000000e+00,9.125690907239913940e-02,0.000000000000000000e+00,1.554867178201675415e-01,-0.000000000000000000e+00,0.000000000000000000e+00
-0.000000000000000000e+00,-0.000000000000000000e+00,0.000000000000000000e+00,1.699822992086410522e-01,0.000000000000000000e+00,0.000000000000000000e+00,0.000000000000000000e+00,-1.501761078834533691e-01,0.000000000000000000e+00,1.536425203084945679e-01,0.000000000000000000e+00,-0.000000000000000000e+00,0.000000000000000000e+00,-0.000000000000000000e+00,0.000000000000000000e+00,-2.198710292577743530e-01,1.575895994901657104e-01,0.000000000000000000e+00,-0.000000000000000000e+00,-0.000000000000000000e+00,-0.000000000000000000e+00,0.000000000000000000e+00,-1.526671797037124634e-01,1.765309423208236694e-01,-0.000000000000000000e+00,-0.000000000000000000e+00,0.000000000000000000e+00,-0.000000000000000000e+00,-1.501147001981735229e-01,0.000000000000000000e+00,0.000000000000000000e+00,-0.000000000000000000e+00,-0.000000000000000000e+00,-0.000000000000000000e+00,-0.000000000000000000e+00,-1.712889969348907471e-01,-0.000000000000000000e+00,0.000000000000000000e+00,-0.000000000000000000e+00,-0.000000000000000000e+00,0.000000000000000000e+00,-2.101474255323410034e-01,-2.288063019514083862e-01,0.000000000000000000e+00,-2.694182991981506348e-01,-2.145042568445205688e-01,-0.000000000000000000e+00,0.000000000000000000e+00,-0.000000000000000000e+00,0.000000000000000000e+00
-0.000000000000000000e+00,-0.000000000000000000e+00,-2.165123671293258667e-01,-0.000000000000000000e+00,0.000000000000000000e+00,-0.000000000000000000e+00,-2.779062390327453613e-01,-0.000000000000000000e+00,-0.000000000000000000e+00,1.540288776159286499e-01,-2.447249293327331543e-01,-0.000000000000000000e+00,0.000000000000000000e+00,0.000000000000000000e+00,0.000000000000000000e+00,-0.000000000000000000e+00,0.000000000000000000e+00,0.000000000000000000e+00,-0.000000000000000000e+00,-0.000000000000000000e+00,3.535072505474090576e-01,-0.000000000000000000e+00,-0.000000000000000000e+00,-0.000000000000000000e+00,-2.352983206510543823e-01,0.000000000000000000e+00,-4.228051304817199707e-01,-0.000000000000000000e+00,-0.000000000000000000e+00,0.000000000000000000e+00,1.840023994445800781e-01,-2.485688179731369019e-01,-2.939008474349975586e-01,0.000000000000000000e+00,0.000000000000000000e+00,-0.000000000000000000e+00,-0.000000000000000000e+00,2.349081188440322876e-01,-0.000000000000000000e+00,0.000000000000000000e+00,1.324772685766220093e-01,0.000000000000000000e+00,-0.000000000000000000e+00,-0.000000000000000000e+00,-0.000000000000000000e+00,-0.000000000000000000e+00,2.867041230201721191e-01,0.000000000000000000e+00,-0.000000000000000000e+00,0.000000000000000000e+00
7.189239859580993652e-01,0.000000000000000000e+00,-0.000000000000000000e+00,0.000000000000000000e+00,0.000000000000000000e+00,-0.000000000000000000e+00,-0.000000000000000000e+00,0.000000000000000000e+00,-6.190519332885742188e-01,-2.298447489738464355e-01,-0.000000000000000000e+00,-1.614947319030761719e-01,0.000000000000000000e+00,0.000000000000000000e+00,-0.000000000000000000e+00,-0.000000000000000000e+00,-7.231380939483642578e-01,0.000000000000000000e+00,0.000000000000000000e+00,-0.000000000000000000e+00,-8.099154829978942871e-01,-0.000000000000000000e+00,0.000000000000000000e+00,-1.848962604999542236e-01,0.000000000000000000e+00,-0.000000000000000000e+00,-0.000000000000000000e+00,-0.000000000000000000e+00,-0.000000000000000000e+00,0.000000000000000000e+00,1.713321357965469360e-01,-0.000000000000000000e+00,0.000000000000000000e+00,-2.004871815443038940e-01,-0.000000000000000000e+00,-1.569049656391143799e-01,0.000000000000000000e+00,-0.000000000000000000e+00,0.000000000000000000e+00,-0.000000000000000000e+00,-0.000000000000000000e+00,-2.402161210775375366e-01,0.000000000000000000e+00,0.000000000000000000e+00,0.000000000000000000e+00,-0.000000000000000000e+00,0.000000000000000000e+00,-0.000000000000000000e+00,-0.000000000000000000e+00,-0.000000000000000000e+00
0.000000000000000000e+00,0.000000000000000000e+00,-1.557967662811279297e-01,-0.000000000000000000e+00,-0.000000000000000000e+00,-0.000000000000000000e+00,-0.000000000000000000e+00,-0.000000000000000000e+00,-2.137763649225234985e-01,2.186914533376693726e-01,-0.000000000000000000e+00,-0.000000000000000000e+00,-1.534978747367858887e-01,2.112561315298080444e-01,-0.000000000000000000e+00,-0.000000000000000000e+00,0.000000000000000000e+00,0.000000000000000000e+00,0.000000000000000000e+00,-1.546336412429809570e-01,0.000000000000000000e+00,-0.000000000000000000e+00,-1.545397490262985229e-01,-0.000000000000000000e+00,2.682473957538604736e-01,-0.000000000000000000e+00,0.000000000000000000e+00,-0.000000000000000000e+00,-0.000000000000000000e+00,0.000000000000000000e+00,-0.000000000000000000e+00,0.000000000000000000e+00,0.000000000000000000e+00,-0.000000000000000000e+00,-0.000000000000000000e+00,1.949973255395889282e-01,-1.988059282302856445e-01,-0.000000000000000000e+00,0.000000000000000000e+00,0.000000000000000000e+00,1.885187476873397827e-01,-0.000000000000000000e+00,2.238530516624450684e-01,0.000000000000000000e+00,-2.981738448143005371e-01,-1.594139933586120605e-01,0.000000000000000000e+00,1.742501705884933472e-01,0.000000000000000000e+00,-0.000000000000000000e+00
-1.774732321500778198e-01,0.000000000000000000e+00,-0.000000000000000000e+00,1.742030680179595947e-01,-0.000000000000000000e+00,0.000000000000000000e+00,-0.000000000000000000e+00,-0.000000000000000000e+00,-0.000000000000000000e+00,1.564511209726333618e-01,-0.000000000000000000e+00,1.697168201208114624e-01,-0.000000000000000000e+00,-0.000000000000000000e+00,1.912135779857635498e-01,-0.000000000000000000e+00,0.000000000000000000e+00,2.294370830059051514e-01,0.000000000000000000e+00,-0.000000000000000000e+00,-0.000000000000000000e+00,-0.000000000000000000e+00,0.000000000000000000e+00,0.000000000000000000e+00,-0.000000000000000000e+00,2.163802385330200195e-01,0.000000000000000000e+00,0.000000000000000000e+00,-3.636409640312194824e-01,2.712299823760986328e-01,0.000000000000000000e+00,1.605989933013916016e-01,-0.000000000000000000e+00,0.000000000000000000e+00,-2.659629583358764648e-01,0.000000000000000000e+00,0.000000000000000000e+00,2.261480689048767090e-01,-0.000000000000000000e+00,0.000000000000000000e+00,-0.000000000000000000e+00,0.000000000000000000e+00,0.000000000000000000e+00,-0.000000000000000000e+00,3.195582032203674316e-01,-0.000000000000000000e+00,0.000000000000000000e+00,-0.000000000000000000e+00,-1.157889142632484436e-01,-0.000000000000000000e+00
-6.113212928175926208e-02,-0.000000000000000000e+00,-0.000000000000000000e+00,0.000000000000000000e+00,-2.495973408222198486e-01,-0.000000000000000000e+00,0.000000000000000000e+00,-0.000000000000000000e+00,0.000000000000000000e+00,-0.000000000000000000e+00,0.000000000000000000e+00,-2.826963365077972412e-01,-0.000000000000000000e+00,-0.000000000000000000e+00,0.000000000000000000e+00,0.000000000000000000e+00,0.000000000000000000e+00,0.000000000000000000e+00,0.000000000000000000e+00,-0.000000000000000000e+00,-0.000000000000000000e+00,0.000000000000000000e+00,-0.000000000000000000e+00,-0.000000000000000000e+00,0.000000000000000000e+00,-2.769243419170379639e-01,-0.000000000000000000e+00,-0.000000000000000000e+00,-0.000000000000000000e+00,-0.000000000000000000e+00,1.608341038227081299e-01,-1.682262420654296875e-01,-0.000000000000000000e+00,2.200724929571151733e-01,1.140873134136199951e-01,-2.092189341783523560e-01,0.000000000000000000e+00,-0.000000000000000000e+00,6.387956738471984863e-01,-0.000000000000000000e+00,-0.000000000000000000e+00,-0.000000000000000000e+00,0.000000000000000000e+00,1.758744120597839355e-01,2.250789254903793335e-01,-0.000000000000000000e+00,-1.010812520980834961e-01,0.000000000000000000e+00,0.000000000000000000e+00,-0.000000000000000000e+00
2.635618448257446289e-01,-2.217759788036346436e-01,0.000000000000000000e+00,-0.000000000000000000e+00,0.000000000000000000e+00,-0.000000000000000000e+00,2.153518646955490112e-01,0.000000000000000000e+00,-1.517409384250640869e-01,-2.068860828876495361e-01,-1.663717776536941528e-01,0.000000000000000000e+00,-0.000000000000000000e+00,-1.870351284742355347e-01,-0.000000000000000000e+00,0.000000000000000000e+00,0.000000000000000000e+00,-2.403367310762405396e-01,-0.000000000000000000e+00,1.647240966558456421e-01,-1.495519429445266724e-01,-0.000000000000000000e+00,-0.000000000000000000e+00,-1.712938845157623291e-01,0.000000000000000000e+00,-0.000000000000000000e+00,-0.000000000000000000e+00,0.000000000000000000e+00,-2.491064965724945068e-01,-0.000000000000000000e+00,-0.000000000000000000e+00,-0.000000000000000000e+00,1.547248959541320801e-01,-0.000000000000000000e+00,-0.000000000000000000e+00,1.804569959640502930e-01,0.000000000000000000e+00,-0.000000000000000000e+00,-0.000000000000000000e+00,-0.000000000000000000e+00,0.000000000000000000e+00,1.557445824146270752e-01,0.000000000000000000e+00,-1.662799566984176636e-01,1.990164518356323242e-01,0.000000000000000000e+00,2.995498478412628174e-01,0.000000000000000000e+00,-1.534673124551773071e-01,0.000000000000000000e+00
0.000000000000000000e+00,-0.000000000000000000e+00,-0.000000000000000000e+00,0.000000000000000000e+00,0.000000000000000000e+00,0.000000000000000000e+00,-0.000000000000000000e+00,-0.000000000000000000e+00,-2.821176052093505859e-01,0.000000000000000000e+00,0.000000000000000000e+00,1.809524595737457275e-01,-0.000000000000000000e+00,-0.000000000000000000e+00,-0.000000000000000000e+00,-0.000000000000000000e+00,-0.000000000000000000e+00,-1.918107569217681885e-01,-0.000000000000000000e+00,0.000000000000000000e+00,3.265215456485748291e-01,2.189161479473114014e-01,-0.000000000000000000e+00,-0.000000000000000000e+00,1.643252670764923096e-01,-0.000000000000000000e+00,-2.252944707870483398e-01,-1.645735353231430054e-01,-0.000000000000000000e+00,-0.000000000000000000e+00,0.000000000000000000e+00,-1.631823778152465820e-01,0.000000000000000000e+00,-0.000000000000000000e+00,-0.000000000000000000e+00,0.000000000000000000e+00,-0.000000000000000000e+00,-0.000000000000000000e+00,0.000000000000000000e+00,0.000000000000000000e+00,-0.000000000000000000e+00,-0.000000000000000000e+00,-0.000000000000000000e+00,0.000000000000000000e+00,0.000000000000000000e+00,0.000000000000000000e+00,-0.000000000000000000e+00,-2.416408956050872803e-01,0.000000000000000000e+00,3.694522082805633545e-01
-0.000000000000000000e+00,-0.000000000000000000e+00,1.980092376470565796e-01,0.000000000000000000e+00,-2.312417328357696533e-01,-4.926282763481140137e-01,0.000000000000000000e+00,-6.226058006286621094e-01,-3.575073182582855225e-02,0.000000000000000000e+00,1.585365086793899536e-01,0.000000000000000000e+00,-0.000000000000000000e+00,-0.000000000000000000e+00,-0.000000000000000000e+00,0.000000000000000000e+00,-0.000000000000000000e+00,0.000000000000000000e+00,-0.000000000000000000e+00,0.000000000000000000e+00,0.000000000000000000e+00,-0.000000000000000000e+00,-0.000000000000000000e+00,-0.000000000000000000e+00,-0.000000000000000000e+00,-3.432581722736358643e-01,-0.000000000000000000e+00,-0.000000000000000000e+00,-3.026261329650878906e-01,-0.000000000000000000e+00,0.000000000000000000e+00,0.000000000000000000e+00,-0.000000000000000000e+00,-1.813654899597167969e-01,0.000000000000000000e+00,0.000000000000000000e+00,-0.000000000000000000e+00,0.000000000000000000e+00,0.000000000000000000e+00,-0.000000000000000000e+00,-6.616415977478027344e-01,0.000000000000000000e+00,5.624800324440002441e-01,1.759758740663528442e-01,0.000000000000000000e+00,-0.000000000000000000e+00,0.000000000000000000e+00,-0.000000000000000000e+00,-0.000000000000000000e+00,0.000000000000000000e+00
0.000000000000000000e+00,2.079475969076156616e-01,-0.000000000000000000e+00,1.530577093362808228e-01,2.000220268964767456e-01,0.000000000000000000e+00,0.000000000000000000e+00,-1.706146299839019775e-01,0.000000000000000000e+00,-0.000000000000000000e+00,-0.000000000000000000e+00,-2.184509038925170898e-01,0.000000000000000000e+00,0.000000000000000000e+00,0.000000000000000000e+00,0.000000000000000000e+00,-0.000000000000000000e+00,-0.000000000000000000e+00,-0.000000000000000000e+00,0.000000000000000000e+00,-0.000000000000000000e+00,0.000000000000000000e+00,-0.000000000000000000e+00,-2.005782872438430786e-01,-0.000000000000000000e+00,0.000000000000000000e+00,0.000000000000000000e+00,1.826424151659011841e-01,-0.000000000000000000e+00,-0.000000000000000000e+00,-1.599439978599548340e-01,-2.126760482788085938e-01,-0.000000000000000000e+00,-0.000000000000000000e+00,-2.449225783348083496e-01,1.526458710432052612e-01,-2.160076647996902466e-01,0.000000000000000000e+00,-0.000000000000000000e+00,1.889741271734237671e-01,-2.215999662876129150e-01,1.909157782793045044e-01,-0.000000000000000000e+00,1.601305752992630005e-01,-1.876609921455383301e-01,0.000000000000000000e+00,1.870694607496261597e-01,1.772945672273635864e-01,0.000000000000000000e+00,-2.129880189895629883e-01
0.000000000000000000e+00,0.000000000000000000e+00,0.000000000000000000e+00,0.000000000000000000e+00,0.000000000000000000e+00,0.000000000000000000e+00,0.000000000000000000e+00,-0.000000000000000000e+00,0.000000000000000000e+00,0.000000000000000000e+00,-2.377676963806152344e-01,-2.313977777957916260e-01,0.000000000000000000e+00,0.000000000000000000e+00,-0.000000000000000000e+00,-0.000000000000000000e+00,0.000000000000000000e+00,-0.000000000000000000e+00,-0.000000000000000000e+00,-0.000000000000000000e+00,-0.000000000000000000e+00,-0.000000000000000000e+00,9.436975717544555664e-01,-0.000000000000000000e+00,6.364175081253051758e-01,0.000000000000000000e+00,-0.000000000000000000e+00,0.000000000000000000e+00,2.298886924982070923e-01,-7.547095417976379395e-01,0.000000000000000000e+00,-0.000000000000000000e+00,0.000000000000000000e+00,0.000000000000000000e+00,-0.000000000000000000e+00,0.000000000000000000e+00,0.000000000000000000e+00,0.000000000000000000e+00,-0.000000000000000000e+00,-0.000000000000000000e+00,0.000000000000000000e+00,-0.000000000000000000e+00,-0.000000000000000000e+00,0.000000000000000000e+00,-3.592091202735900879e-01,0.000000000000000000e+00,4.889262914657592773e-01,0.000000000000000000e+00,8.593111038208007812e-01,0.000000000000000000e+00
-2.267374694347381592e-01,-1.558031439781188965e-01,1.885167509317398071e-01,0.000000000000000000e+00,0.000000000000000000e+00,-0.000000000000000000e+00,-0.000000000000000000e+00,0.000000000000000000e+00,2.358015328645706177e-01,1.498846560716629028e-01,1.811504513025283813e-01,0.000000000000000000e+00,2.469949424266815186e-01,-0.000000000000000000e+00,0.000000000000000000e+00,0.000000000000000000e+00,3.091321289539337158e-01,-0.000000000000000000e+00,-0.000000000000000000e+00,0.000000000000000000e+00,-0.000000000000000000e+00,-0.000000000000000000e+00,-0.000000000000000000e+00,-0.000000000000000000e+00,0.000000000000000000e+00,-2.247756719589233398e-01,-0.000000000000000000e+00,0.000000000000000000e+00,0.000000000000000000e+00,-2.633607387542724609e-01,0.000000000000000000e+00,-2.295348346233367920e-01,0.000000000000000000e+00,-2.271635383367538452e-01,2.104727178812026978e-01,1.572871506214141846e-01,-0.000000000000000000e+00,0.000000000000000000e+00,-1.820148229598999023e-01,0.000000000000000000e+00,-0.000000000000000000e+00,0.000000000000000000e+00,-2.216747403144836426e-01,0.000000000000000000e+00,0.000000000000000000e+00,-0.000000000000000000e+00,-0.000000000000000000e+00,-2.071734964847564697e-01,-0.000000000000000000e+00,-0.000000000000000000e+00
-0.000000000000000000e+00,-0.000000000000000000e+00,1.694872379302978516e-01,0.000000000000000000e+00,-2.447151094675064087e-01,1.484911292791366577e-01,0.000000000000000000e+00,0.000000000000000000e+00,-0.000000000000000000e+00,-0.000000000000000000e+00,-2.056504935026168823e-01,-2.190128862857818604e-01,0.000000000000000000e+00,-5.407334566116333008e-01,-4.556114971637725830e-01,-0.000000000000000000e+00,-0.000000000000000000e+00,0.000000000000000000e+00,-0.000000000000000000e+00,-0.000000000000000000e+00,0.000000000000000000e+00,7.118096351623535156e-01,-0.000000000000000000e+00,0.000000000000000000e+00,0.000000000000000000e+00,-0.000000000000000000e+00,-0.000000000000000000e+00,-0.000000000000000000e+00,0.000000000000000000e+00,3.250562548637390137e-01,-0.000000000000000000e+00,-0.000000000000000000e+00,0.000000000000000000e+00,-0.000000000000000000e+00,-0.000000000000000000e+00,-1.607396453619003296e-01,-3.624354004859924316e-01,-0.000000000000000000e+00,0.000000000000000000e+00,7.959890961647033691e-01,1.013938244432210922e-02,-0.000000000000000000e+00,0.000000000000000000e+00,-0.000000000000000000e+00,0.000000000000000000e+00,0.000000000000000000e+00,5.410305261611938477e-01,-0.000000000000000000e+00,0.000000000000000000e+00,0.000000000000000000e+00
0.000000000000000000e+00,-0.000000000000000000e+00,0.000000000000000000e+00,0.000000000000000000e+00,-1.657475829124450684e-01,0.000000000000000000e+00,1.494765281677246094e-01,-0.000000000000000000e+00,-0.000000000000000000e+00,-0.000000000000000000e+00,0.000000000000000000e+00,-0.000000000000000000e+00,-2.206171452999114990e-01,-0.000000000000000000e+00,-0.000000000000000000e+00,-2.413511723279953003e-01,-0.000000000000000000e+00,0.000000000000000000e+00,-0.000000000000000000e+00,-2.625024616718292236e-01,0.000000000000000000e+00,2.206801772117614746e-01,0.000000000000000000e+00,1.594414561986923218e-01,-0.000000000000000000e+00,0.000000000000000000e+00,0.000000000000000000e+00,-0.000000000000000000e+00,-0.000000000000000000e+00,0.000000000000000000e+00,-2.541563212871551514e-01,-1.601811796426773071e-01,-0.000000000000000000e+00,-0.000000000000000000e+00,-0.000000000000000000e+00,-1.947510689496994019e-01,2.001075893640518188e-01,0.000000000000000000e+00,0.000000000000000000e+00,-0.000000000000000000e+00,-0.000000000000000000e+00,0.000000000000000000e+00,-0.000000000000000000e+00,-0.000000000000000000e+00,0.000000000000000000e+00,-0.000000000000000000e+00,0.000000000000000000e+00,0.000000000000000000e+00,-1.960440576076507568e-01,0.000000000000000000e+00
4.498521685600280762e-01,0.000000000000000000e+00,-1.784297078847885132e-01,-1.671907603740692139e-01,1.741118878126144409e-01,0.000000000000000000e+00,0.000000000000000000e+00,0.000000000000000000e+00,0.000000000000000000e+00,-2.221285402774810791e-01,-0.000000000000000000e+00,0.000000000000000000e+00,0.000000000000000000e+00,0.000000000000000000e+00,0.000000000000000000e+00,-0.000000000000000000e+00,0.000000000000000000e+00,0.000000000000000000e+00,-4.085699319839477539e-01,-2.761868238449096680e-01,0.000000000000000000e+00,6.425095796585083008e-01,0.000000000000000000e+00,-1.544438898563385010e-01,-0.000000000000000000e+00,-0.000000000000000000e+00,0.000000000000000000e+00,0.000000000000000000e+00,0.000000000000000000e+00,-0.000000000000000000e+00,-1.842373758554458618e-01,-1.504448503255844116e-01,0.000000000000000000e+00,-1.987245380878448486e-01,0.000000000000000000e+00,0.000000000000000000e+00,0.000000000000000000e+00,-3.693194091320037842e-01,-0.000000000000000000e+00,6.554023027420043945e-01,-0.000000000000000000e+00,-0.000000000000000000e+00,-0.000000000000000000e+00,-2.658073008060455322e-01,0.000000000000000000e+00,0.000000000000000000e+00,-2.042864449322223663e-02,-0.000000000000000000e+00,-0.000000000000000000e+00,0.000000000000000000e+00
-0.000000000000000000e+00,0.000000000000000000e+00,2.134369462728500366e-01,0.000000000000000000e+00,-0.000000000000000000e+00,1.262143254280090332e-01,-0.000000000000000000e+00,0.000000000000000000e+00,0.000000000000000000e+00,-0.000000000000000000e+00,-2.830487489700317383e-01,-0.000000000000000000e+00,-0.000000000000000000e+00,-0.000000000000000000e+00,-0.000000000000000000e+00,-0.000000000000000000e+00,-0.000000000000000000e+00,-3.293408155441284180e-01,-0.000000000000000000e+00,2.448409795761108398e-01,-0.000000000000000000e+00,0.000000000000000000e+00,1.272335052490234375e-01,-1.558747887611389160e-01,0.000000000000000000e+00,-7.393499016761779785e-01,-1.116078138351440430e+00,-0.000000000000000000e+00,0.000000000000000000e+00,0.000000000000000000e+00,-1.897136569023132324e-01,-0.000000000000000000e+00,-8.164727687835693359e-01,-0.000000000000000000e+00,-2.949350774288177490e-01,-1.857348233461380005e-01,-0.000000000000000000e+00,0.000000000000000000e+00,1.022716522216796875e+00,-0.000000000000000000e+00,0.000000000000000000e+00,-1.649538278579711914e-01,0.000000000000000000e+00,0.000000000000000000e+00,-8.533784747123718262e-02,-3.016392588615417480e-01,5.570798516273498535e-01,-0.000000000000000000e+00,0.000000000000000000e+00,-1.471747905015945435e-01
1.592601388692855835e-01,-0.000000000000000000e+00,-0.000000000000000000e+00,-2.319024056196212769e-01,0.000000000000000000e+00,-0.000000000000000000e+00,-1.523741185665130615e-01,-1.747296452522277832e-01,0.000000000000000000e+00,0.000000000000000000e+00,0.000000000000000000e+00,-0.000000000000000000e+00,-0.000000000000000000e+00,-0.000000000000000000e+00,-0.000000000000000000e+00,0.000000000000000000e+00,0.000000000000000000e+00,0.000000000000000000e+00,0.000000000000000000e+00,0.000000000000000000e+00,-2.339568585157394409e-01,0.000000000000000000e+00,-0.000000000000000000e+00,-0.000000000000000000e+00,0.000000000000000000e+00,0.000000000000000000e+00,-0.000000000000000000e+00,0.000000000000000000e+00,-1.619544178247451782e-01,-1.959982961416244507e-01,-2.047848701477050781e-01,-0.000000000000000000e+00,0.000000000000000000e+00,-2.029101550579071045e-01,0.000000000000000000e+00,-2.255192101001739502e-01,-0.000000000000000000e+00,0.000000000000000000e+00,-0.000000000000000000e+00,0.000000000000000000e+00,0.000000000000000000e+00,-0.000000000000000000e+00,0.000000000000000000e+00,-0.000000000000000000e+00,2.650187015533447266e-01,0.000000000000000000e+00,1.943437904119491577e-01,2.061824351549148560e-01,2.077970057725906372e-01,1.890087872743606567e-01
-0.000000000000000000e+00,0.000000000000000000e+00,-1.618462502956390381e-01,-2.962955832481384277e-01,-0.000000000000000000e+00,-0.000000000000000000e+00,0.000000000000000000e+00,0.000000000000000000e+00,-0.000000000000000000e+00,1.838435232639312744e-01,-2.517059445381164551e-01,-0.000000000000000000e+00,1.274055838584899902e-01,-2.723209857940673828e-01,0.000000000000000000e+00,-0.000000000000000000e+00,0.000000000000000000e+00,-0.000000000000000000e+00,0.000000000000000000e+00,1.222175881266593933e-01,2.114596366882324219e-01,0.000000000000000000e+00,0.000000000000000000e+00,-0.000000000000000000e+00,2.467613816261291504e-01,-0.000000000000000000e+00,-4.354816675186157227e-01,-0.000000000000000000e+00,-0.000000000000000000e+00,0.000000000000000000e+00,-2.686556279659271240e-01,-0.000000000000000000e+00,2.111189812421798706e-01,2.434553653001785278e-01,-0.000000000000000000e+00,0.000000000000000000e+00,-0.000000000000000000e+00,0.000000000000000000e+00,5.659900903701782227e-01,-0.000000000000000000e+00,0.000000000000000000e+00,0.000000000000000000e+00,0.000000000000000000e+00,-1.619583368301391602e-01,-0.000000000000000000e+00,-0.000000000000000000e+00,-0.000000000000000000e+00,-0.000000000000000000e+00,-0.000000000000000000e+00,-0.000000000000000000e+00
-0.000000000000000000e+00,5.810980796813964844e-01,0.000000000000000000e+00,-0.000000000000000000e+00,-1.658344715833663940e-01,0.000000000000000000e+00,0.000000000000000000e+00,0.000000000000000000e+00,-0.000000000000000000e+00,0.000000000000000000e+00,-2.052421420812606812e-01,0.000000000000000000e+00,-0.000000000000000000e+00,4.843466579914093018e-01,5.936326384544372559e-01,-0.000000000000000000e+00,-0.000000000000000000e+00,-0.000000000000000000e+00,-0.000000000000000000e+00,0.000000000000000000e+00,-0.000000000000000000e+00,-3.558294177055358887e-01,-3.435260057449340820e-01,-2.108155786991119385e-01,0.000000000000000000e+00,4.742226898670196533e-01,5.504381656646728516e-01,-4.401519596576690674e-01,-0.000000000000000000e+00,0.000000000000000000e+00,0.000000000000000000e+00,-0.000000000000000000e+00,6.129495501518249512e-01,-0.000000000000000000e+00,-0.000000000000000000e+00,-0.000000000000000000e+00,-0.000000000000000000e+00,3.701990842819213867e-01,3.106666505336761475e-01,-4.294514656066894531e-01,-0.000000000000000000e+00,-0.000000000000000000e+00,-0.000000000000000000e+00,-0.000000000000000000e+00,-0.000000000000000000e+00,0.000000000000000000e+00,-6.032151579856872559e-01,-0.000000000000000000e+00,-3.570479154586791992e-01,-0.000000000000000000e+00
-2.305784076452255249e-01,0.000000000000000000e+00,-0.000000000000000000e+00,0.000000000000000000e+00,0.000000000000000000e+00,2.496123462915420532e-01,1.830358058214187622e-01,0.000000000000000000e+00,-0.000000000000000000e+00,1.882567852735519409e-01,0.000000000000000000e+00,-2.598409652709960938e-01,-0.000000000000000000e+00,-0.000000000000000000e+00,1.768215447664260864e-01,0.000000000000000000e+00,-2.231264114379882812e-01,0.000000000000000000e+00,0.000000000000000000e+00,0.000000000000000000e+00,1.953999102115631104e-01,0.000000000000000000e+00,0.000000000000000000e+00,0.000000000000000000e+00,-1.821183115243911743e-01,0.000000000000000000e+00,0.000000000000000000e+00,1.757638156414031982e-01,-0.000000000000000000e+00,-0.000000000000000000e+00,-0.000000000000000000e+00,1.921673864126205444e-01,2.495753020048141479e-01,-0.000000000000000000e+00,-1.666103154420852661e-01,-0.000000000000000000e+00,0.000000000000000000e+00,0.000000000000000000e+00,-0.000000000000000000e+00,-0.000000000000000000e+00,-0.000000000000000000e+00,1.509777307510375977e-01,0.000000000000000000e+00,2.102121263742446899e-01,0.000000000000000000e+00,2.595612108707427979e-01,-0.000000000000000000e+00,1.810701787471771240e-01,-2.265846133232116699e-01,2.384980618953704834e-01
0.000000000000000000e+00,-0.000000000000000000e+00,-0.000000000000000000e+00,0.000000000000000000e+00,-0.000000000000000000e+00,-0.000000000000000000e+00,0.000000000000000000e+00,-1.601901352405548096e-01,2.041052430868148804e-01,0.000000000000000000e+00,-0.000000000000000000e+00,0.000000000000000000e+00,-0.000000000000000000e+00,1.984153538942337036e-01,-2.212804555892944336e-01,1.551020145416259766e-01,0.000000000000000000e+00,-0.000000000000000000e+00,-0.000000000000000000e+00,0.000000000000000000e+00,0.000000000000000000e+00,-0.000000000000000000e+00,-1.688690930604934692e-01,-0.000000000000000000e+00,2.439712435007095337e-01,0.000000000000000000e+00,-0.000000000000000000e+00,0.000000000000000000e+00,0.000000000000000000e+00,0.000000000000000000e+00,-2.296298146247863770e-01,0.000000000000000000e+00,0.000000000000000000e+00,-0.000000000000000000e+00,0.000000000000000000e+00,-0.000000000000000000e+00,-0.000000000000000000e+00,0.000000000000000000e+00,0.000000000000000000e+00,0.000000000000000000e+00,-0.000000000000000000e+00,-2.501281499862670898e-01,-0.000000000000000000e+00,0.000000000000000000e+00,0.000000000000000000e+00,0.000000000000000000e+00,1.744413822889328003e-01,1.954546421766281128e-01,-2.618091404438018799e-01,-0.000000000000000000e+00
-0.000000000000000000e+00,-0.000000000000000000e+00,0.000000000000000000e+00,1.952330023050308228e-01,-2.729812860488891602e-01,-0.000000000000000000e+00,0.000000000000000000e+00,1.935301125049591064e-01,-1.928491443395614624e-01,0.000000000000000000e+00,0.000000000000000000e+00,0.000000000000000000e+00,-2.326993495225906372e-01,1.977249979972839355e-01,0.000000000000000000e+00,0.000000000000000000e+00,-1.633137613534927368e-01,-1.775436699390411377e-01,-1.705371588468551636e-01,2.377534806728363037e-01,3.055742084980010986e-01,0.000000000000000000e+00,0.000000000000000000e+00,1.497708559036254883e-01,0.000000000000000000e+00,-2.079530209302902222e-01,-2.667218148708343506e-01,-0.000000000000000000e+00,0.000000000000000000e+00,0.000000000000000000e+00,1.501550376415252686e-01,0.000000000000000000e+00,-1.503024697303771973e-01,0.000000000000000000e+00,-0.000000000000000000e+00,-0.000000000000000000e+00,0.000000000000000000e+00,-2.201346009969711304e-01,2.285420149564743042e-01,-2.643443048000335693e-01,0.000000000000000000e+00,-0.000000000000000000e+00,1.906522363424301147e-01,0.000000000000000000e+00,-0.000000000000000000e+00,1.509659439325332642e-01,-0.000000000000000000e+00,-2.130103707313537598e-01,0.000000000000000000e+00,-0.000000000000000000e+00
-0.000000000000000000e+00,-0.000000000000000000e+00,0.000000000000000000e+00,-0.000000000000000000e+00,-0.000000000000000000e+00,0.000000000000000000e+00,1.879256665706634521e-01,0.000000000000000000e+00,-0.000000000000000000e+00,-0.000000000000000000e+00,0.000000000000000000e+00,-0.000000000000000000e+00,0.000000000000000000e+00,-0.000000000000000000e+00,-0.000000000000000000e+00,-0.000000000000000000e+00,0.000000000000000000e+00,-0.000000000000000000e+00,-0.000000000000000000e+00,-0.000000000000000000e+00,0.000000000000000000e+00,-0.000000000000000000e+00,-0.000000000000000000e+00,-0.000000000000000000e+00,-0.000000000000000000e+00,-0.000000000000000000e+00,-0.000000000000000000e+00,-0.000000000000000000e+00,0.000000000000000000e+00,-2.284012585878372192e-01,-0.000000000000000000e+00,0.000000000000000000e+00,-0.000000000000000000e+00,-0.000000000000000000e+00,0.000000000000000000e+00,0.000000000000000000e+00,-1.913869678974151611e-01,-0.000000000000000000e+00,-1.666151732206344604e-01,-0.000000000000000000e+00,0.000000000000000000e+00,-2.028217017650604248e-01,0.000000000000000000e+00,2.007848024368286133e-01,0.000000000000000000e+00,0.000000000000000000e+00,-0.000000000000000000e+00,0.000000000000000000e+00,-0.000000000000000000e+00,-0.000000000000000000e+00
-2.066488265991210938e-01,-0.000000000000000000e+00,2.346488386392593384e-01,0.000000000000000000e+00,-0.000000000000000000e+00,1.940155476331710815e-01,0.000000000000000000e+00,-0.000000000000000000e+00,0.000000000000000000e+00,0.000000000000000000e+00,0.000000000000000000e+00,1.701879352331161499e-01,-0.000000000000000000e+00,-0.000000000000000000e+00,-0.000000000000000000e+00,0.000000000000000000e+00,-0.000000000000000000e+00,-2.163318395614624023e-01,2.011281102895736694e-01,-2.300772517919540405e-01,-2.362225502729415894e-01,-0.000000000000000000e+00,2.143018394708633423e-01,-0.000000000000000000e+00,0.000000000000000000e+00,-0.000000000000000000e+00,-0.000000000000000000e+00,0.000000000000000000e+00,-0.000000000000000000e+00,-2.247352004051208496e-01,1.708166748285293579e-01,0.000000000000000000e+00,-1.755961179733276367e-01,-2.396987080574035645e-01,0.000000000000000000e+00,0.000000000000000000e+00,0.000000000000000000e+00,1.724677234888076782e-01,0.000000000000000000e+00,0.000000000000000000e+00,-0.000000000000000000e+00,0.000000000000000000e+00,0.000000000000000000e+00,0.000000000000000000e+00,-2.433553934097290039e-01,0.000000000000000000e+00,1.750204712152481079e-01,0.000000000000000000e+00,-2.191605269908905029e-01,-0.000000000000000000e+00
0.000000000000000000e+00,0.000000000000000000e+00,-0.000000000000000000e+00,0.000000000000000000e+00,0.000000000000000000e+00,0.000000000000000000e+00,-2.749578356742858887e-01,0.000000000000000000e+00,0.000000000000000000e+00,-2.170301824808120728e-01,2.138748914003372192e-01,0.000000000000000000e+00,0.000000000000000000e+00,-0.000000000000000000e+00,-0.000000000000000000e+00,1.870956569910049438e-01,1.509803384542465210e-01,0.000000000000000000e+00,-0.000000000000000000e+00,-2.003384381532669067e-01,0.000000000000000000e+00,-0.000000000000000000e+00,-0.000000000000000000e+00,-1.929650157690048218e-01,0.000000000000000000e+00,-2.353374511003494263e-01,0.000000000000000000e+00,-1.497527807950973511e-01,-0.000000000000000000e+00,-0.000000000000000000e+00,-0.000000000000000000e+00,0.000000000000000000e+00,0.000000000000000000e+00,-2.413969933986663818e-01,0.000000000000000000e+00,-1.654969155788421631e-01,-1.734723895788192749e-01,2.224424332380294800e-01,-0.000000000000000000e+00,-0.000000000000000000e+00,-0.000000000000000000e+00,2.093687206506729126e-01,2.201149016618728638e-01,-0.000000000000000000e+00,0.000000000000000000e+00,0.000000000000000000e+00,-0.000000000000000000e+00,0.000000000000000000e+00,0.000000000000000000e+00,-0.000000000000000000e+00
-0.000000000000000000e+00,-0.000000000000000000e+00,-0.000000000000000000e+00,-1.659906208515167236e-01,1.876312643289566040e-01,-0.000000000000000000e+00,-0.000000000000000000e+00,2.499078512191772461e-01,0.000000000000000000e+00,0.000000000000000000e+00,-2.720314562320709229e-01,-0.000000000000000000e+00,-0.000000000000000000e+00,0.000000000000000000e+00,-0.000000000000000000e+00,0.000000000000000000e+00,0.000000000000000000e+00,-0.000000000000000000e+00,-0.000000000000000000e+00,2.416419535875320435e-01,0.000000000000000000e+00,0.000000000000000000e+00,0.000000000000000000e+00,-2.360059469938278198e-01,2.339294403791427612e-01,0.000000000000000000e+00,0.000000000000000000e+00,0.000000000000000000e+00,1.610267311334609985e-01,-0.000000000000000000e+00,-2.679924368858337402e-01,-0.000000000000000000e+00,-0.000000000000000000e+00,0.000000000000000000e+00,1.555587053298950195e-01,1.983691900968551636e-01,0.000000000000000000e+00,-0.000000000000000000e+00,0.000000000000000000e+00,0.000000000000000000e+00,2.791049480438232422e-01,-0.000000000000000000e+00,0.000000000000000000e+00,-0.000000000000000000e+00,-0.000000000000000000e+00,-2.217745184898376465e-01,0.000000000000000000e+00,-2.312482744455337524e-01,-0.000000000000000000e+00,-0.000000000000000000e+00
-0.000000000000000000e+00,-0.000000000000000000e+00,-2.379224151372909546e-01,-0.000000000000000000e+00,-2.760320007801055908e-01,-0.000000000000000000e+00,5.997555851936340332e-01,5.130458474159240723e-01,-0.000000000000000000e+00,-1.752343177795410156e-01,0.000000000000000000e+00,0.000000000000000000e+00,-0.000000000000000000e+00,-0.000000000000000000e+00,0.000000000000000000e+00,-0.000000000000000000e+00,0.000000000000000000e+00,-0.000000000000000000e+00,0.000000000000000000e+00,-0.000000000000000000e+00,0.000000000000000000e+00,0.000000000000000000e+00,0.000000000000000000e+00,-0.000000000000000000e+00,0.000000000000000000e+00,-0.000000000000000000e+00,0.000000000000000000e+00,-4.993379414081573486e-01,0.000000000000000000e+00,-0.000000000000000000e+00,-0.000000000000000000e+00,-2.756009995937347412e-01,0.000000000000000000e+00,-0.000000000000000000e+00,3.924807310104370117e-01,-0.000000000000000000e+00,-3.131600618362426758e-01,0.000000000000000000e+00,-0.000000000000000000e+00,-0.000000000000000000e+00,-0.000000000000000000e+00,-1.886624842882156372e-01,5.622190609574317932e-02,-1.987018436193466187e-01,0.000000000000000000e+00,0.000000000000000000e+00,0.000000000000000000e+00,-1.516294181346893311e-01,0.000000000000000000e+00,4.786650240421295166e-01
0.000000000000000000e+00,-1.837996095418930054e-01,-1.795674115419387817e-01,0.000000000000000000e+00,-2.059034854173660278e-01,0.000000000000000000e+00,-1.503298431634902954e-01,2.509066462516784668e-01,-1.909364014863967896e-01,0.000000000000000000e+00,0.000000000000000000e+00,-0.000000000000000000e+00,2.068582177162170410e-01,0.000000000000000000e+00,0.000000000000000000e+00,-0.000000000000000000e+00,-1.937538534402847290e-01,0.000000000000000000e+00,-2.239472568035125732e-01,2.202571779489517212e-01,-1.794167757034301758e-01,-0.000000000000000000e+00,1.863696724176406860e-01,0.000000000000000000e+00,2.102089226245880127e-01,0.000000000000000000e+00,-0.000000000000000000e+00,0.000000000000000000e+00,2.385795414447784424e-01,-2.057667523622512817e-01,0.000000000000000000e+00,1.629473567008972168e-01,-0.000000000000000000e+00,-0.000000000000000000e+00,-1.910558491945266724e-01,-0.000000000000000000e+00,2.014593034982681274e-01,-0.000000000000000000e+00,0.000000000000000000e+00,-0.000000000000000000e+00,-0.000000000000000000e+00,-0.000000000000000000e+00,0.000000000000000000e+00,-2.036024332046508789e-01,-0.000000000000000000e+00,-2.576493620872497559e-01,-0.000000000000000000e+00,-0.000000000000000000e+00,-0.000000000000000000e+00,-1.735200583934783936e-01
-8.436449766159057617e-01,-0.000000000000000000e+00,1.534866541624069214e-01,0.000000000000000000e+00,0.000000000000000000e+00,3.517535626888275146e-01,-0.000000000000000000e+00,6.448994278907775879e-01,0.000000000000000000e+00,-0.000000000000000000e+00,-1.570695936679840088e-01,-0.000000000000000000e+00,1.245187878608703613e+00,0.000000000000000000e+00,-0.000000000000000000e+00,0.000000000000000000e+00,-0.000000000000000000e+00,-0.000000000000000000e+00,0.000000000000000000e+00,-0.000000000000000000e+00,0.000000000000000000e+00,-6.863557696342468262e-01,0.000000000000000000e+00,0.000000000000000000e+00,0.000000000000000000e+00,0.000000000000000000e+00,-0.000000000000000000e+00,-0.000000000000000000e+00,-0.000000000000000000e+00,-6.291926652193069458e-02,1.693203598260879517e-01,0.000000000000000000e+00,1.693844437599182129e+00,0.000000000000000000e+00,-0.000000000000000000e+00,-0.000000000000000000e+00,0.000000000000000000e+00,-0.000000000000000000e+00,0.000000000000000000e+00,0.000000000000000000e+00,4.782021939754486084e-01,0.000000000000000000e+00,-0.000000000000000000e+00,0.000000000000000000e+00,1.049727916717529297e+00,3.929809927940368652e-01,0.000000000000000000e+00,-2.591227591037750244e-01,-3.415516614913940430e-01,5.732603073120117188e-01
-0.000000000000000000e+00,-0.000000000000000000e+00,-0.000000000000000000e+00,3.580350875854492188e-01,1.496330052614212036e-01,-0.000000000000000000e+00,1.074656605720520020e+00,-0.000000000000000000e+00,-0.000000000000000000e+00,-2.209089249372482300e-01,1.580972671508789062e-01,-2.311803996562957764e-01,-0.000000000000000000e+00,-0.000000000000000000e+00,1.359577178955078125e+00,-0.000000000000000000e+00,9.985080957412719727e-01,0.000000000000000000e+00,1.178260803222656250e+00,0.000000000000000000e+00,0.000000000000000000e+00,-0.000000000000000000e+00,0.000000000000000000e+00,-0.000000000000000000e+00,-0.000000000000000000e+00,0.000000000000000000e+00,0.000000000000000000e+00,-0.000000000000000000e+00,0.000000000000000000e+00,-0.000000000000000000e+00,0.000000000000000000e+00,-1.701090335845947266e-01,-0.000000000000000000e+00,-1.672894805669784546e-01,-0.000000000000000000e+00,-1.833558380603790283e-01,-0.000000000000000000e+00,0.000000000000000000e+00,-0.000000000000000000e+00,0.000000000000000000e+00,1.293645501136779785e+00,-0.000000000000000000e+00,0.000000000000000000e+00,-0.000000000000000000e+00,-0.000000000000000000e+00,-0.000000000000000000e+00,-6.733892560005187988e-01,0.000000000000000000e+00,0.000000000000000000e+00,-0.000000000000000000e+00
-0.000000000000000000e+00,0.000000000000000000e+00,-1.677141934633255005e-01,0.000000000000000000e+00,-2.815240919589996338e-01,0.000000000000000000e+00,-0.000000000000000000e+00,-0.000000000000000000e+00,-1.525723934173583984e-01,1.980804353952407837e-01,-0.000000000000000000e+00,-0.000000000000000000e+00,-0.000000000000000000e+00,0.000000000000000000e+00,0.000000000000000000e+00,0.000000000000000000e+00,0.000000000000000000e+00,-0.000000000000000000e+00,0.000000000000000000e+00,-2.432031482458114624e-01,0.000000000000000000e+00,0.000000000000000000e+00,1.049211025238037109e-01,0.000000000000000000e+00,0.000000000000000000e+00,0.000000000000000000e+00,-0.000000000000000000e+00,0.000000000000000000e+00,-4.543143212795257568e-01,-0.000000000000000000e+00,0.000000000000000000e+00,0.000000000000000000e+00,-0.000000000000000000e+00,0.000000000000000000e+00,-2.670772671699523926e-01,0.000000000000000000e+00,0.000000000000000000e+00,-0.000000000000000000e+00,-0.000000000000000000e+00,9.853096008300781250e-01,-0.000000000000000000e+00,-1.701901257038116455e-01,7.740815877914428711e-01,-2.873149216175079346e-01,-0.000000000000000000e+00,-0.000000000000000000e+00,-0.000000000000000000e+00,-2.439660876989364624e-01,3.231061100959777832e-01,0.000000000000000000e+00
-0.000000000000000000e+00,-0.000000000000000000e+00,0.000000000000000000e+00,-1.493659466505050659e-01,-1.547128111124038696e-01,-0.000000000000000000e+00,0.000000000000000000e+00,-0.000000000000000000e+00,-0.000000000000000000e+00,-0.000000000000000000e+00,0.000000000000000000e+00,-2.024927437305450439e-01,0.000000000000000000e+00,-0.000000000000000000e+00,2.466475218534469604e-01,0.000000000000000000e+00,0.000000000000000000e+00,-0.000000000000000000e+00,6.530598998069763184e-01,5.911208391189575195e-01,-0.000000000000000000e+00,0.000000000000000000e+00,0.000000000000000000e+00,-1.972627788782119751e-01,-0.000000000000000000e+00,0.000000000000000000e+00,-0.000000000000000000e+00,-0.000000000000000000e+00,-0.000000000000000000e+00,-1.806608885526657104e-01,0.000000000000000000e+00,-0.000000000000000000e+00,-0.000000000000000000e+00,1.570226401090621948e-01,-0.000000000000000000e+00,0.000000000000000000e+00,-0.000000000000000000e+00,-0.000000000000000000e+00,-0.000000000000000000e+00,-5.709502696990966797e-01,-0.000000000000000000e+00,-2.003138363361358643e-01,-1.892651170492172241e-01,-0.000000000000000000e+00,0.000000000000000000e+00,-0.000000000000000000e+00,0.000000000000000000e+00,-0.000000000000000000e+00,0.000000000000000000e+00,0.000000000000000000e+00
0.000000000000000000e+00,0.000000000000000000e+00,1.672310680150985718e-01,1.779558211565017700e-01,-0.000000000000000000e+00,0.000000000000000000e+00,0.000000000000000000e+00,-0.000000000000000000e+00,0.000000000000000000e+00,-1.611385792493820190e-01,-1.579965204000473022e-01,0.000000000000000000e+00,0.000000000000000000e+00,-0.000000000000000000e+00,-0.000000000000000000e+00,-0.000000000000000000e+00,2.041424959897994995e-01,0.000000000000000000e+00,-2.240519672632217407e-01,2.210893779993057251e-01,-0.000000000000000000e+00,1.599057912826538086e-01,-2.537788450717926025e-01,-0.000000000000000000e+00,-0.000000000000000000e+00,-2.407047748565673828e-01,-0.000000000000000000e+00,-2.563343942165374756e-01,0.000000000000000000e+00,0.000000000000000000e+00,0.000000000000000000e+00,-2.552980482578277588e-01,0.000000000000000000e+00,-0.000000000000000000e+00,0.000000000000000000e+00,-0.000000000000000000e+00,1.951059848070144653e-01,1.976851075887680054e-01,0.000000000000000000e+00,-2.170932739973068237e-01,0.000000000000000000e+00,-0.000000000000000000e+00,2.033178955316543579e-01,-1.894438266754150391e-01,0.000000000000000000e+00,1.605886369943618774e-01,0.000000000000000000e+00,-2.439393401145935059e-01,0.000000000000000000e+00,0.000000000000000000e+00
